{
  "AWSTemplateFormatVersion": "2010-09-09",
  "Parameters" : {
    "HostedZoneComment" : {
      "Type" : "String",
      "Description" : "The comment used when creating a hosted zone"
    },
    "HostedZoneName" : {
      "Type" : "String",
      "Description" : "The domain name for the hosted zone (example.com)"
    },
    "ProjectNameTag" : {
      "Type" : "String",
      "Description" : "The project associated with this Hosted Zone"
    },
    "OwnerSponsorTag" : {
      "Type" : "String",
      "Description" : "The Owner/Sponsor for this Hosted Zone"
    },
    "OwnerSponsorNetIdTag" : {
      "Type" : "String",
      "Description" : "The netid of the Owner/Sponsor for this Hosted Zone"
    }
  },
  "Resources": {
    "DNS": {
      "Type": "AWS::Route53::HostedZone",
      "Properties": {
        "Name" : { "Ref" : "HostedZoneName" },
        "HostedZoneConfig": {
          "Comment": { "Ref" : "HostedZoneComment" }
        },
        "HostedZoneTags" : [
          {
            "Key": "projectname",
            "Value": { "Ref" : "ProjectNameTag" }
          },
          {
            "Key": "Owner/Sponsor",
            "Value": { "Ref" : "OwnerSponsorTag" }
          },
          {
            "Key": "netid",
            "Value": { "Ref" : "OwnerSponsorNetIdTag" }
          }
        ]
      }
    }
  }
}